Metin madenciliği yöntemiyle matrix(1999) filminin incelenmesi
…
matrix %>% 
  count(character) #karekter sayıları

## # A tibble: 31 x 2
##    character       n
##    <chr>       <int>
##  1 AGENT BROWN     8
##  2 AGENT JONES    15
##  3 AGENT SMITH    63
##  4 APOC           10
##  5 BIG COP         2
##  6 CHOI            8
##  7 COP             2
##  8 CYPHER         55
##  9 DOZER           5
## 10 DUJOUR          1
## # ... with 21 more rows
…
